<svg xmlns="http://www.w3.org/2000/svg" width="19.146" height="19.146" viewBox="0 0 19.146 19.146">
  <g id="Icon_feather-download" data-name="Icon feather-download" transform="translate(-3.5 -3.5)">
    <path id="Path_5982" data-name="Path 5982" d="M21.646,22.5v3.81a1.905,1.905,0,0,1-1.905,1.905H6.405A1.905,1.905,0,0,1,4.5,26.31V22.5" transform="translate(0 -6.569)" fill="none" stroke="#000" stroke-linecap="round" stroke-linejoin="round" stroke-width="2"/>
    <path id="Path_5983" data-name="Path 5983" d="M10.5,15l4.763,4.763L20.026,15" transform="translate(-2.19 -3.832)" fill="none" stroke="#000" stroke-linecap="round" stroke-linejoin="round" stroke-width="2"/>
    <path id="Path_5984" data-name="Path 5984" d="M18,15.931V4.5" transform="translate(-4.927)" fill="none" stroke="#000" stroke-linecap="round" stroke-linejoin="round" stroke-width="2"/>
  </g>
</svg>
