<svg xmlns="http://www.w3.org/2000/svg" width="18.155" height="14.969" viewBox="0 0 18.155 14.969">
  <path id="Icon_awesome-coffee" data-name="Icon awesome-coffee" d="M5.877,13.029h5.879a2.94,2.94,0,0,0,2.94-2.94h.98a3.919,3.919,0,1,0,0-7.839h-12a.733.733,0,0,0-.735.735v7.1A2.94,2.94,0,0,0,5.877,13.029Zm9.8-8.819a1.96,1.96,0,1,1,0,3.919H14.7V4.21Zm-.384,13.009H2.921c-1.458,0-1.868-1.96-1.1-1.96H16.391c.766,0,.361,1.96-1.1,1.96Z" transform="translate(-1.44 -2.25)" fill="#fff"/>
</svg>
