<svg xmlns="http://www.w3.org/2000/svg" width="93.5" height="93.5" viewBox="0 0 93.5 93.5">
  <g id="Group_83" data-name="Group 83" transform="translate(-88.582 -131.58)">
    <g id="Group_2984" data-name="Group 2984">
      <g id="Group_79" data-name="Group 79" transform="translate(88.582 131.58)">
        <g id="Rectangle_102" data-name="Rectangle 102" transform="translate(0 0)" fill="none" stroke="#b53535" stroke-width="8">
          <rect width="93.5" height="93.5" rx="46.75" stroke="none"/>
          <rect x="4" y="4" width="85.5" height="85.5" rx="42.75" fill="none"/>
        </g>
      </g>
      <line id="Line_161" data-name="Line 161" y2="23" transform="translate(135.008 157.83)" fill="none" stroke="#b53535" stroke-linecap="round" stroke-width="8"/>
      <line id="Line_162" data-name="Line 162" y2="2" transform="translate(135.008 196.83)" fill="none" stroke="#b53535" stroke-linecap="round" stroke-width="8"/>
    </g>
  </g>
</svg>
